{
  "hash": "1764ea4f",
  "browserHash": "8cda04e1",
  "optimized": {
    "vue": {
      "src": "../../node_modules/vue/dist/vue.runtime.esm-bundler.js",
      "file": "vue.js",
      "fileHash": "9f306a3f",
      "needsInterop": false
    },
    "vue3-lottie": {
      "src": "../../node_modules/vue3-lottie/dist/vue3-lottie.es.js",
      "file": "vue3-lottie.js",
      "fileHash": "e3fc22d4",
      "needsInterop": false
    },
    "vue-toastification": {
      "src": "../../node_modules/vue-toastification/dist/index.mjs",
      "file": "vue-toastification.js",
      "fileHash": "d03e78a5",
      "needsInterop": false
    },
    "axios": {
      "src": "../../node_modules/axios/index.js",
      "file": "axios.js",
      "fileHash": "c0d88e7b",
      "needsInterop": false
    }
  },
  "chunks": {
    "chunk-ATF5JAET": {
      "file": "chunk-ATF5JAET.js"
    },
    "chunk-TWLJ45QX": {
      "file": "chunk-TWLJ45QX.js"
    }
  }
}